jbiadmin01602 : Negative tests for application configuration operations for target=server
IGNORE JBI_HOME is D:/nikita/dev/jsr208/jnet/open-esb/install/as8/jbi
IGNORE JBI_DOMAIN_ROOT is D:/nikita/dev/jsr208/jnet/open-esb/install/as8/domains/CAS
jbi_instance_name is server
IGNORE jmx.provider is service:jmx:rmi:///jndi/rmi://Mystique01:10789/management/rmi-jmx-connector

BUILD SUCCESSFUL
IGNORE Total time: 1 second
Listing application configurations
IGNORE   jmx connection info: (host=localhost, port=6951, secure=false, username=admin, target=server )
List application configuration failed. [
  ERROR:(UICMN3000)Component manage-binding-1 is not installed on target server. Please install the component and retry this operation.
]

BUILD SUCCESSFUL
IGNORE Total time: 1 second
Creating application configuration
IGNORE   jmx connection info: (host=localhost, port=6951, secure=false, username=admin, target=server )
Add application configuration failed. [
  ERROR:(UICMN3000)Component manage-binding-1 is not installed on target server. Please install the component and retry this operation.
]

BUILD SUCCESSFUL
IGNORE Total time: 1 second
Updating application configuration
IGNORE   jmx connection info: (host=localhost, port=6951, secure=false, username=admin, target=server )
Set application configuration failed. [
  ERROR:(UICMN3000)Component manage-binding-1 is not installed on target server. Please install the component and retry this operation.
]

BUILD SUCCESSFUL
IGNORE Total time: 1 second
Deleting application configuration
IGNORE   jmx connection info: (host=localhost, port=6951, secure=false, username=admin, target=server )
Delete application configuration failed. [
  ERROR:(UICMN3000)Component manage-binding-1 is not installed on target server. Please install the component and retry this operation.
]

BUILD SUCCESSFUL
IGNORE Total time: 1 second
Installing a component
IGNORE   jmx connection info: (host=localhost, port=6951, secure=false, username=admin, target=server )
IGNORE  file=D:/nikita/dev/jsr208/jnet/open-esb/runtime/esb-manage/bld/test-classes/dist/component-with-custom-mbean.jar
Install component succeeded. [
manage-binding-1
]

BUILD SUCCESSFUL
IGNORE Total time: 1 second
Listing application configurations
IGNORE   jmx connection info: (host=localhost, port=6951, secure=false, username=admin, target=server )
List application configuration failed. [
  ERROR:(JBIMA1803)Component manage-binding-1 is in the Shutdown state. Cannot create, update, list or delete configuration for a component which is not in Started or Stopped state.
]

BUILD SUCCESSFUL
IGNORE Total time: 1 second
Creating application configuration
IGNORE   jmx connection info: (host=localhost, port=6951, secure=false, username=admin, target=server )
Add application configuration failed. [
  ERROR:(JBIMA1803)Component manage-binding-1 is in the Shutdown state. Cannot create, update, list or delete configuration for a component which is not in Started or Stopped state.
]

BUILD SUCCESSFUL
IGNORE Total time: 1 second
Updating application configuration
IGNORE   jmx connection info: (host=localhost, port=6951, secure=false, username=admin, target=server )
Set application configuration failed. [
  ERROR:(JBIMA1803)Component manage-binding-1 is in the Shutdown state. Cannot create, update, list or delete configuration for a component which is not in Started or Stopped state.
]

BUILD SUCCESSFUL
IGNORE Total time: 1 second
Deleting application configuration
IGNORE   jmx connection info: (host=localhost, port=6951, secure=false, username=admin, target=server )
Delete application configuration failed. [
  ERROR:(JBIMA1803)Component manage-binding-1 is in the Shutdown state. Cannot create, update, list or delete configuration for a component which is not in Started or Stopped state.
]

BUILD SUCCESSFUL
IGNORE Total time: 1 second
Starting a component
IGNORE   jmx connection info: (host=localhost, port=6951, secure=false, username=admin, target=server )
  name=manage-binding-1
Start component succeeded. [
manage-binding-1
]

BUILD SUCCESSFUL
IGNORE Total time: 1 second
Creating application configuration
IGNORE   jmx connection info: (host=localhost, port=6951, secure=false, username=admin, target=server )
Add application configuration succeeded.

BUILD SUCCESSFUL
IGNORE Total time: 1 second
Listing application configurations
IGNORE   jmx connection info: (host=localhost, port=6951, secure=false, username=admin, target=server )
=====================================================================
Application Configuration for "manage-binding-1" on Target "server"
=====================================================================
Application Configuration Name : testConfig
	configurationName=testConfig
	connectionURL=jndi://
	jndienv:
		[0] com.sonicsw.jndi.mfcontext.domain=Domain1
		[1] com.sonicsw.jndi.mfcontext.idleTimeout=60000 
	securityCredential=myPassword
	securityPrincipal=Administrator
Application Configuration Name : defaultConfig
	configurationName=defaultConfig
	connectionURL=http://www.sun.com
	jndienv:
		[0] env1=value1
		[1] env2=value2
	securityCredential=abc
	securityPrincipal=administrator

BUILD SUCCESSFUL
IGNORE Total time: 1 second
Creating application configuration
IGNORE   jmx connection info: (host=localhost, port=6951, secure=false, username=admin, target=server )
Add application configuration failed. [
  ERROR:(JBIMA1823)Application configuration with name testConfig is already defined in component manage-binding-1.
]

BUILD SUCCESSFUL
IGNORE Total time: 1 second
Deleting application configuration
IGNORE   jmx connection info: (host=localhost, port=6951, secure=false, username=admin, target=server )
Delete application configuration succeeded.

BUILD SUCCESSFUL
IGNORE Total time: 1 second
Updating application configuration
IGNORE   jmx connection info: (host=localhost, port=6951, secure=false, username=admin, target=server )
Set application configuration failed. [
  ERROR:(JBIMA1824)Application configuration with name someConfig is not defined in component manage-binding-1.
]

BUILD SUCCESSFUL
IGNORE Total time: 1 second
Deleting application configuration
IGNORE   jmx connection info: (host=localhost, port=6951, secure=false, username=admin, target=server )
Delete application configuration failed. [
  ERROR:(JBIMA1824)Application configuration with name aConfig is not defined in component manage-binding-1.
]

BUILD SUCCESSFUL
IGNORE Total time: 1 second
Creating application configuration
IGNORE   jmx connection info: (host=localhost, port=4851, secure=false, username=admin, target=server )
Add application configuration failed. [
  ERROR:(JBIUT0202)The operation failed since the provided application configuration has invalid properties [ extraProperty2, extraProperty1  ].
]

BUILD SUCCESSFUL
IGNORE Total time: 0 seconds
Creating application configuration
IGNORE   jmx connection info: (host=localhost, port=4851, secure=false, username=admin, target=server )
Add application configuration failed. [
  ERROR:(JBIMA1832)"securityPrincipal" is a required application configuration parameter for component manage-binding-1, this field is either null or not defined in configuration testConfig.
]

BUILD SUCCESSFUL
IGNORE Total time: 0 seconds
Listing application configurations
IGNORE    jmx connection info: (host=localhost, port=4851, secure=false, username=admin, target=server )
=====================================================================
Application Configuration for "manage-binding-1" on Target "server"
=====================================================================
Application Configuration Name : defaultConfig
	configurationName=defaultConfig
	connectionURL=http://www.sun.com
	jndienv:
		[0] env1=value1
		[1] env2=value2
	securityCredential=abc
	securityPrincipal=administrator

BUILD SUCCESSFUL
IGNORE  Total time: 0 seconds
Creating application configuration
IGNORE   jmx connection info: (host=localhost, port=4851, secure=false, username=admin, target=server )
Add application configuration succeeded.

BUILD SUCCESSFUL
IGNORE  Total time: 0 seconds
Listing application configurations
IGNORE    jmx connection info: (host=localhost, port=4851, secure=false, username=admin, target=server )
=====================================================================
Application Configuration for "manage-binding-1" on Target "server"
=====================================================================
Application Configuration Name : testConfig
	configurationName=testConfig
	connectionURL=jndi://
	jndienv:
		[0] com.sonicsw.jndi.mfcontext.domain=Domain1
		[1] com.sonicsw.jndi.mfcontext.idleTimeout=60000 
	securityCredential=myPassword
	securityPrincipal=Administrator
Application Configuration Name : defaultConfig
	configurationName=defaultConfig
	connectionURL=http://www.sun.com
	jndienv:
		[0] env1=value1
		[1] env2=value2
	securityCredential=abc
	securityPrincipal=administrator

BUILD SUCCESSFUL
IGNORE  Total time: 0 seconds
Updating application configuration
IGNORE    jmx connection info: (host=localhost, port=4851, secure=false, username=admin, target=server )
Set application configuration succeeded.

BUILD SUCCESSFUL
IGNORE  Total time: 0 seconds
Listing application configurations
IGNORE    jmx connection info: (host=localhost, port=4851, secure=false, username=admin, target=server )
=====================================================================
Application Configuration for "manage-binding-1" on Target "server"
=====================================================================
Application Configuration Name : testConfig
	configurationName=testConfig
	connectionURL=http://
	jndienv:
		[0] com.sonicsw.jndi.mfcontext.domain=Domain1
		[1] com.sonicsw.jndi.mfcontext.idleTimeout=60000 
	securityCredential=${sonic_sec_principal}
	securityPrincipal=admin
Application Configuration Name : defaultConfig
	configurationName=defaultConfig
	connectionURL=http://www.sun.com
	jndienv:
		[0] env1=value1
		[1] env2=value2
	securityCredential=abc
	securityPrincipal=administrator

BUILD SUCCESSFUL
IGNORE  Total time: 0 seconds
  ERROR:(UICMN3007)Application configuration "fred" is not defined for component manage-binding-1 on target server.  
Shutting down a component
IGNORE   jmx connection info: (host=localhost, port=6951, secure=false, username=admin, target=server )
  name=manage-binding-1
Shutdown component succeeded. [
manage-binding-1
]

BUILD SUCCESSFUL
IGNORE Total time: 1 second
Uninstalling a component
IGNORE   jmx connection info: (host=localhost, port=6951, secure=false, username=admin, target=server )
  name=manage-binding-1
Uninstall component succeeded. [
manage-binding-1
]

BUILD SUCCESSFUL
IGNORE Total time: 1 second
