jbiadmin00133 : Test fix for CR 6515975 for Component uninstall
IGNORE JBI_HOME is D:/nikita/dev/jsr208/main/open-esb/install/as8/jbi
IGNORE JBI_DOMAIN_ROOT is D:/nikita/dev/jsr208/main/open-esb/install/as8/domains/CAS
IGNORE jbi_instance_name is server
IGNORE jmx.provider is service:jmx:rmi:///jndi/rmi://Mystique01:10789/management/rmi-jmx-connector

BUILD SUCCESSFUL
IGNORE Total time: 2 seconds
Installing a component
IGNORE jmx connection info: (host=localhost, port=6951, secure=true, username=admin, target=server )
IGNORE file=D:/nikita/dev/jsr208/main/open-esb/runtime/esb-manage/bld/test-classes/dist/component-binding1.jar
Install component succeeded. [
manage-binding-1
]

BUILD SUCCESSFUL
IGNORE Total time: 3 seconds
Installing a component
IGNORE jmx connection info: (host=localhost, port=6951, secure=true, username=admin, target=instance1 )
IGNORE file=D:/nikita/dev/jsr208/main/open-esb/runtime/esb-manage/bld/test-classes/dist/component-binding1.jar
Install component succeeded. [
manage-binding-1
]

BUILD SUCCESSFUL
IGNORE Total time: 3 seconds
============================================================
  List of Binding Components for Target "domain"
============================================================
Name       : manage-binding-1
State      : Shutdown
Description: A dummy binding used to test deployment.
------------------------------------------------------------
Name       : sun-http-binding
State      : Shutdown
Description: HTTP binding component. Provides message processing capabilities over HTTP protocol in a JBI 1.0 compliant environment.
------------------------------------------------------------

BUILD SUCCESSFUL
IGNORE Total time: 2 seconds
============================================================
  List of Binding Components for Target "server"
============================================================
Name       : manage-binding-1
State      : Shutdown
Description: A dummy binding used to test deployment.
------------------------------------------------------------
Name       : sun-http-binding
State      : Shutdown
Description: HTTP binding component. Provides message processing capabilities over HTTP protocol in a JBI 1.0 compliant environment.
------------------------------------------------------------

BUILD SUCCESSFUL
IGNORE Total time: 2 seconds
============================================================
  List of Binding Components for Target "instance1"
============================================================
Name       : manage-binding-1
State      : Shutdown
Description: A dummy binding used to test deployment.
------------------------------------------------------------
Name       : sun-http-binding
State      : Shutdown
Description: HTTP binding component. Provides message processing capabilities over HTTP protocol in a JBI 1.0 compliant environment.
------------------------------------------------------------

BUILD SUCCESSFUL
IGNORE Total time: 2 seconds
Uninstalling a component
IGNORE jmx connection info: (host=localhost, port=6951, secure=true, username=admin, target=instance1 )
IGNORE name=manage-binding-1
Uninstall component succeeded. [
manage-binding-1
]

BUILD SUCCESSFUL
IGNORE Total time: 2 seconds
============================================================
  List of Binding Components for Target "server"
============================================================
Name       : manage-binding-1
State      : Shutdown
Description: A dummy binding used to test deployment.
------------------------------------------------------------
Name       : sun-http-binding
State      : Shutdown
Description: HTTP binding component. Provides message processing capabilities over HTTP protocol in a JBI 1.0 compliant environment.
------------------------------------------------------------

BUILD SUCCESSFUL
IGNORE Total time: 2 seconds
============================================================
  List of Binding Components for Target "instance1"
============================================================
Name       : sun-http-binding
State      : Shutdown
Description: HTTP binding component. Provides message processing capabilities over HTTP protocol in a JBI 1.0 compliant environment.
------------------------------------------------------------

BUILD SUCCESSFUL
IGNORE Total time: 2 seconds
Uninstalling a component
IGNORE jmx connection info: (host=localhost, port=6951, secure=true, username=admin, target=domain )
IGNORE name=manage-binding-1
Uninstall component failed. [
  ERROR:(JBIMA1330)Component manage-binding-1 is still installed on some targets.
]

BUILD SUCCESSFUL
IGNORE Total time: 2 seconds
============================================================
  List of Binding Components for Target "server"
============================================================
Name       : manage-binding-1
State      : Shutdown
Description: A dummy binding used to test deployment.
------------------------------------------------------------
Name       : sun-http-binding
State      : Shutdown
Description: HTTP binding component. Provides message processing capabilities over HTTP protocol in a JBI 1.0 compliant environment.
------------------------------------------------------------

BUILD SUCCESSFUL
IGNORE Total time: 2 seconds
============================================================
  List of Binding Components for Target "instance1"
============================================================
Name       : sun-http-binding
State      : Shutdown
Description: HTTP binding component. Provides message processing capabilities over HTTP protocol in a JBI 1.0 compliant environment.
------------------------------------------------------------

BUILD SUCCESSFUL
IGNORE Total time: 2 seconds
Uninstalling a component
IGNORE jmx connection info: (host=localhost, port=6951, secure=true, username=admin, target=server )
IGNORE name=manage-binding-1
Uninstall component succeeded. [
manage-binding-1
]

BUILD SUCCESSFUL
IGNORE Total time: 2 seconds
============================================================
  List of Binding Components for Target "domain"
============================================================
Name       : manage-binding-1
State      : Unknown
Description: A dummy binding used to test deployment.
------------------------------------------------------------
Name       : sun-http-binding
State      : Shutdown
Description: HTTP binding component. Provides message processing capabilities over HTTP protocol in a JBI 1.0 compliant environment.
------------------------------------------------------------

BUILD SUCCESSFUL
IGNORE Total time: 2 seconds
Uninstalling a component
IGNORE jmx connection info: (host=localhost, port=6951, secure=true, username=admin, target=domain )
IGNORE name=manage-binding-1
Uninstall component succeeded. [
manage-binding-1
]

BUILD SUCCESSFUL
IGNORE Total time: 2 seconds
============================================================
  List of Binding Components for Target "domain"
============================================================
Name       : sun-http-binding
State      : Shutdown
Description: HTTP binding component. Provides message processing capabilities over HTTP protocol in a JBI 1.0 compliant environment.
------------------------------------------------------------

BUILD SUCCESSFUL
IGNORE Total time: 2 seconds
============================================================
  List of Binding Components for Target "server"
============================================================
Name       : sun-http-binding
State      : Shutdown
Description: HTTP binding component. Provides message processing capabilities over HTTP protocol in a JBI 1.0 compliant environment.
------------------------------------------------------------

BUILD SUCCESSFUL
IGNORE Total time: 2 seconds
============================================================
  List of Binding Components for Target "instance1"
============================================================
Name       : sun-http-binding
State      : Shutdown
Description: HTTP binding component. Provides message processing capabilities over HTTP protocol in a JBI 1.0 compliant environment.
------------------------------------------------------------

BUILD SUCCESSFUL
IGNORE Total time: 2 seconds
