jbiadmin01600 : Tests the facade Component Configuration MBean for target=server
IGNORE JBI_HOME is /home/yz72237/build/open-esb/install/as8/jbi
IGNORE JBI_DOMAIN_ROOT is /home/yz72237/build/open-esb/install/as8/domains/CAS
jbi_instance_name is server
IGNORE jmx.provider is service:jmx:rmi:///jndi/rmi://TOSHIBA-YUNPENG:9189/management/rmi-jmx-connector

BUILD SUCCESSFUL
IGNORE Total time: 1 second
IGNORE JBI_HOME is /home/yz72237/build/open-esb/install/as8/jbi
IGNORE JBI_DOMAIN_ROOT is /home/yz72237/build/open-esb/install/as8/domains/CAS
jbi_instance_name is server
IGNORE jmx.provider is service:jmx:rmi:///jndi/rmi://TOSHIBA-YUNPENG:9189/management/rmi-jmx-connector

BUILD SUCCESSFUL
IGNORE Total time: 1 second
IGNORE JBI_HOME is /home/yz72237/build/open-esb/install/as8/jbi
IGNORE JBI_DOMAIN_ROOT is /home/yz72237/build/open-esb/install/as8/domains/CAS
jbi_instance_name is server
IGNORE jmx.provider is service:jmx:rmi:///jndi/rmi://TOSHIBA-YUNPENG:9189/management/rmi-jmx-connector

BUILD SUCCESSFUL
IGNORE Total time: 1 second
Installing a component
IGNORE  jmx connection info: (host=localhost, port=5351, secure=false, username=admin, target=server )
IGNORE  file=C:/cygwin/home/yz72237/build/open-esb/runtime/esb-manage/bld/test-classes/dist/component-with-custom-mbean.jar
Install component succeeded. [
manage-binding-1
]

BUILD SUCCESSFUL
IGNORE Total time: 0 seconds
Starting a component
IGNORE  jmx connection info: (host=localhost, port=5351, secure=false, username=admin, target=server )
  name=manage-binding-1
Start component succeeded. [
manage-binding-1
]

BUILD SUCCESSFUL
IGNORE Total time: 0 seconds
Installing a component
IGNORE  jmx connection info: (host=localhost, port=5351, secure=false, username=admin, target=server )
IGNORE  file=C:/cygwin/home/yz72237/build/open-esb/runtime/esb-manage/bld/test-classes/dist/component-with-config-mbean-rgstrd-in-start.jar
Install component succeeded. [
test-component-in-start-stop
]

BUILD SUCCESSFUL
IGNORE Total time: 1 second
Starting a component
IGNORE  jmx connection info: (host=localhost, port=5351, secure=false, username=admin, target=server )
  name=test-component-in-start-stop
Start component succeeded. [
test-component-in-start-stop
]

BUILD SUCCESSFUL
IGNORE Total time: 0 seconds
Installing a component
IGNORE  jmx connection info: (host=localhost, port=5351, secure=false, username=admin, target=server )
IGNORE  file=C:/cygwin/home/yz72237/build/open-esb/runtime/esb-manage/bld/test-classes/dist/component-with-new-config-mbean-expose-no-attrs.jar
Install component succeeded. [
test-component-config-mbean-no-attrs
]

BUILD SUCCESSFUL
IGNORE Total time: 1 second
Starting a component
IGNORE  jmx connection info: (host=localhost, port=5351, secure=false, username=admin, target=server )
  name=test-component-config-mbean-no-attrs
Start component succeeded. [
test-component-config-mbean-no-attrs
]

BUILD SUCCESSFUL
IGNORE Total time: 0 seconds
Setting component configuration
IGNORE  jmx connection info: (host=localhost, port=5351, secure=false, username=admin, target=server )
Set configuration succeeded. [
  INFO:(JBIMA1804)Successfully set attributes [ HostName ] on component test-component-in-start-stop.
]

BUILD SUCCESSFUL
IGNORE Total time: 0 seconds
Stopping a component
IGNORE  jmx connection info: (host=localhost, port=5351, secure=false, username=admin, target=server )
  name=test-component-in-start-stop
Stop component succeeded. [
test-component-in-start-stop
]

BUILD SUCCESSFUL
IGNORE Total time: 0 seconds
Setting component configuration
IGNORE  jmx connection info: (host=localhost, port=5351, secure=false, username=admin, target=server )
Set configuration failed. [
  ERROR:(JBIMA1836)Cannot configure the component test-component-in-start-stop because it has not registered a configuration MBean. Try starting the component first, if it is not already started. 
]

BUILD SUCCESSFUL
IGNORE Total time: 0 seconds
Setting component configuration
IGNORE  jmx connection info: (host=localhost, port=5351, secure=false, username=admin, target=server )
Set configuration failed. [
  ERROR:(JBIMA1800)Cannot configure the component test-component-config-mbean-no-attrs, the configuration MBean does not expose any attributes for management. 
]

BUILD SUCCESSFUL
IGNORE Total time: 0 seconds
Stopping a component
IGNORE  jmx connection info: (host=localhost, port=5351, secure=false, username=admin, target=server )
  name=test-component-config-mbean-no-attrs
Stop component succeeded. [
test-component-config-mbean-no-attrs
]

BUILD SUCCESSFUL
IGNORE Total time: 0 seconds
Setting component configuration
IGNORE  jmx connection info: (host=localhost, port=5351, secure=false, username=admin, target=server )
Set configuration failed. [
  ERROR:(JBIMA1836)Cannot configure the component test-component-config-mbean-no-attrs because it has not registered a configuration MBean. Try starting the component first, if it is not already started. 
]

BUILD SUCCESSFUL
IGNORE Total time: 0 seconds
IGNORE JBI_HOME is /home/yz72237/build/open-esb/install/as8/jbi
IGNORE JBI_DOMAIN_ROOT is /home/yz72237/build/open-esb/install/as8/domains/CAS
jbi_instance_name is server
IGNORE jmx.provider is service:jmx:rmi:///jndi/rmi://TOSHIBA-YUNPENG:9189/management/rmi-jmx-connector
##### Result of  setAttribute = SUCCESS
##### Result of  getAttribute = Mystique01
##### Result of  setAttribute = SUCCESS
##### Result of  getAttribute = secret
##### Result of  setAttributes = SUCCESS
##### Result of  getAttributes = HostName=Magnetto, Port=6789, 
##### Result of  setConfigurationAttribute = <?xml version="1.0" encoding="UTF-8" standalone="yes"?><jbi-task version="1.0" xmlns="http://java.sun.com/xml/ns/jbi/management-message"><jbi-task-result><frmwk-task-result><frmwk-task-result-details><task-result-details><task-id>setAttribute</task-id><task-result>SUCCESS</task-result><message-type>INFO</message-type><task-status-msg><msg-loc-info><loc-token>JBIMA1806</loc-token><loc-message>Successfully set attribute Port on component manage-binding-1.</loc-message><loc-param>Port</loc-param><loc-param>manage-binding-1</loc-param></msg-loc-info></task-status-msg></task-result-details><locale>en</locale></frmwk-task-result-details></frmwk-task-result></jbi-task-result></jbi-task>
##### Result of  getAttribute = 10789
##### Result of  setConfigurationAttributes = <?xml version="1.0" encoding="UTF-8" standalone="yes"?><jbi-task version="1.0" xmlns="http://java.sun.com/xml/ns/jbi/management-message"><jbi-task-result><frmwk-task-result><frmwk-task-result-details><task-result-details><task-id>setAttributes</task-id><task-result>SUCCESS</task-result><message-type>INFO</message-type><task-status-msg><msg-loc-info><loc-token>JBIMA1804</loc-token><loc-message>Successfully set attributes [ HostName, Port ] on component manage-binding-1.</loc-message><loc-param>[ HostName, Port ]</loc-param><loc-param>manage-binding-1</loc-param></msg-loc-info></task-status-msg></task-result-details><locale>en</locale></frmwk-task-result-details></frmwk-task-result></jbi-task-result></jbi-task>
##### Result of  getAttributes = HostName=Wolverine, Port=1234, ProxyPassword=secret, 
##### Result of  getApplicationVariables = 
      Name : default Value : defValue  Type : STRING
##### Result of  addApplicationVariable = <?xml version="1.0" encoding="UTF-8" standalone="yes"?><jbi-task version="1.0" xmlns="http://java.sun.com/xml/ns/jbi/management-message"><jbi-task-result><frmwk-task-result><frmwk-task-result-details><task-result-details><task-id>addApplicationVariable</task-id><task-result>SUCCESS</task-result></task-result-details><locale>en</locale></frmwk-task-result-details></frmwk-task-result></jbi-task-result></jbi-task>
##### Result of  addApplicationVariable = <?xml version="1.0" encoding="UTF-8" standalone="yes"?><jbi-task version="1.0" xmlns="http://java.sun.com/xml/ns/jbi/management-message"><jbi-task-result><frmwk-task-result><frmwk-task-result-details><task-result-details><task-id>addApplicationVariable</task-id><task-result>SUCCESS</task-result></task-result-details><locale>en</locale></frmwk-task-result-details></frmwk-task-result></jbi-task-result></jbi-task>
##### Result of  getApplicationVariables = 
      Name : default Value : defValue  Type : STRING
      Name : SecurityCredential Value : http://www.sun.com  Type : PASSWORD
      Name : Location Value : http://www.sun.com  Type : STRING
##### Result of  setApplicationVariable = <?xml version="1.0" encoding="UTF-8" standalone="yes"?><jbi-task version="1.0" xmlns="http://java.sun.com/xml/ns/jbi/management-message"><jbi-task-result><frmwk-task-result><frmwk-task-result-details><task-result-details><task-id>setApplicationVariable</task-id><task-result>SUCCESS</task-result></task-result-details><locale>en</locale></frmwk-task-result-details></frmwk-task-result></jbi-task-result></jbi-task>
##### Result of  getApplicationVariables = 
      Name : default Value : defValue  Type : STRING
      Name : SecurityCredential Value : http://www.sun.com  Type : PASSWORD
      Name : Location Value : http://www.google.com  Type : STRING
##### Result of  deleteApplicationVariable = <?xml version="1.0" encoding="UTF-8" standalone="yes"?><jbi-task version="1.0" xmlns="http://java.sun.com/xml/ns/jbi/management-message"><jbi-task-result><frmwk-task-result><frmwk-task-result-details><task-result-details><task-id>deleteApplicationVariable</task-id><task-result>SUCCESS</task-result></task-result-details><locale>en</locale></frmwk-task-result-details></frmwk-task-result></jbi-task-result></jbi-task>
##### Result of  getApplicationVariables = 
      Name : default Value : defValue  Type : STRING
      Name : SecurityCredential Value : http://www.sun.com  Type : PASSWORD
##### Result of  queryApplicationConfigurationType = javax.management.openmbean.CompositeType(name=ApplicationConfigurationComposite,items=((itemName=configurationName,itemType=javax.management.openmbean.SimpleType(name=java.lang.String)),(itemName=connectionURL,itemType=javax.management.openmbean.SimpleType(name=java.lang.String)),(itemName=jndienv,itemType=javax.management.openmbean.ArrayType(name=[Ljava.lang.String;,dimension=1,elementType=javax.management.openmbean.SimpleType(name=java.lang.String))),(itemName=securityCredential,itemType=javax.management.openmbean.SimpleType(name=java.lang.String)),(itemName=securityPrincipal,itemType=javax.management.openmbean.SimpleType(name=java.lang.String))))
##### Result of  getApplicationConfigurations = 
Application Configuration : defaultConfig
	connectionURL      = http://www.sun.com
	securityPrincipal  = administrator
	securityCredential = abc
	jndienv = 
		[ env1=value1 env2=value2  ]
##### Result of  addApplicationConfiguration = <?xml version="1.0" encoding="UTF-8" standalone="yes"?><jbi-task version="1.0" xmlns="http://java.sun.com/xml/ns/jbi/management-message"><jbi-task-result><frmwk-task-result><frmwk-task-result-details><task-result-details><task-id>addApplicationConfiguration</task-id><task-result>SUCCESS</task-result></task-result-details><locale>en</locale></frmwk-task-result-details></frmwk-task-result></jbi-task-result></jbi-task>
##### Result of  getApplicationConfigurations = 
Application Configuration : defaultConfig
	connectionURL      = http://www.sun.com
	securityPrincipal  = administrator
	securityCredential = abc
	jndienv = 
		[ env1=value1 env2=value2  ]
Application Configuration : newAppConfig
	connectionURL      = http://www.google.com
	securityPrincipal  = admin
	securityCredential = adminadmin
	jndienv = 
		[ var1 var2 var3  ]
##### Result of  setApplicationConfiguration = <?xml version="1.0" encoding="UTF-8" standalone="yes"?><jbi-task version="1.0" xmlns="http://java.sun.com/xml/ns/jbi/management-message"><jbi-task-result><frmwk-task-result><frmwk-task-result-details><task-result-details><task-id>setApplicationConfiguration</task-id><task-result>SUCCESS</task-result></task-result-details><locale>en</locale></frmwk-task-result-details></frmwk-task-result></jbi-task-result></jbi-task>
##### Result of  getApplicationConfigurations = 
Application Configuration : defaultConfig
	connectionURL      = http://www.sun.com
	securityPrincipal  = administrator
	securityCredential = abc
	jndienv = 
		[ env1=value1 env2=value2  ]
Application Configuration : newAppConfig
	connectionURL      = http://www.youtube.com
	securityPrincipal  = su
	securityCredential = suPass
	jndienv = 
		[ var1=value1 var2=value2 var3=value3  ]
##### Result of  deleteApplicationConfiguration = <?xml version="1.0" encoding="UTF-8" standalone="yes"?><jbi-task version="1.0" xmlns="http://java.sun.com/xml/ns/jbi/management-message"><jbi-task-result><frmwk-task-result><frmwk-task-result-details><task-result-details><task-id>deleteApplicationConfiguration</task-id><task-result>SUCCESS</task-result></task-result-details><locale>en</locale></frmwk-task-result-details></frmwk-task-result></jbi-task-result></jbi-task>
##### Result of  getApplicationConfigurations = 
Application Configuration : defaultConfig
	connectionURL      = http://www.sun.com
	securityPrincipal  = administrator
	securityCredential = abc
	jndienv = 
		[ env1=value1 env2=value2  ]

BUILD SUCCESSFUL
IGNORE Total time: 2 seconds
Stopping a component
IGNORE  jmx connection info: (host=localhost, port=5351, secure=false, username=admin, target=server )
  name=manage-binding-1
Stop component succeeded. [
manage-binding-1
]

BUILD SUCCESSFUL
IGNORE Total time: 0 seconds
Shutting down a component
IGNORE  jmx connection info: (host=localhost, port=5351, secure=false, username=admin, target=server )
  name=manage-binding-1
Shutdown component succeeded. [
manage-binding-1
]

BUILD SUCCESSFUL
IGNORE Total time: 0 seconds
Uninstalling a component
IGNORE  jmx connection info: (host=localhost, port=5351, secure=false, username=admin, target=server )
  name=manage-binding-1
Uninstall component succeeded. [
manage-binding-1
]

BUILD SUCCESSFUL
IGNORE Total time: 0 seconds
Shutting down a component
IGNORE  jmx connection info: (host=localhost, port=5351, secure=false, username=admin, target=server )
  name=test-component-in-start-stop
Shutdown component succeeded. [
test-component-in-start-stop
]

BUILD SUCCESSFUL
IGNORE Total time: 0 seconds
Uninstalling a component
IGNORE  jmx connection info: (host=localhost, port=5351, secure=false, username=admin, target=server )
  name=test-component-in-start-stop
Uninstall component succeeded. [
test-component-in-start-stop
]

BUILD SUCCESSFUL
IGNORE Total time: 0 seconds
Shutting down a component
IGNORE  jmx connection info: (host=localhost, port=5351, secure=false, username=admin, target=server )
  name=test-component-config-mbean-no-attrs
Shutdown component succeeded. [
test-component-config-mbean-no-attrs
]

BUILD SUCCESSFUL
IGNORE Total time: 0 seconds
Uninstalling a component
IGNORE  jmx connection info: (host=localhost, port=5351, secure=false, username=admin, target=server )
  name=test-component-config-mbean-no-attrs
Uninstall component succeeded. [
test-component-config-mbean-no-attrs
]

BUILD SUCCESSFUL
IGNORE Total time: 0 seconds
