testname is jbiadmin01399
Stopping instance : cluster1-instance1
Command stop-instance executed successfully.
Deleting instance : cluster1-instance1
Command delete-instance executed successfully.
Stopping instance : cluster1-instance2
Command stop-instance executed successfully.
Deleting instance : cluster1-instance2
Command delete-instance executed successfully.
Deleting cluster : cluster1
Command delete-cluster executed successfully.
