jmsbinding00006.ksh- UNDEPLOY jms binding test
Stopping a service assembly
IGNORE   jmx connection info: (host=localhost, port=31387, username=admin)
IGNORE   name=JMS_SAMPLE_WSDL_UNIT
Stop service assembly succeeded. [
JMS_SAMPLE_WSDL_UNIT
]

BUILD SUCCESSFUL
IGNORE Total time: 3 seconds
Shutting down a service assembly
IGNORE   jmx connection info: (host=localhost, port=31387, username=admin)
IGNORE   name=JMS_SAMPLE_WSDL_UNIT
Shutdown service assembly succeeded. [
JMS_SAMPLE_WSDL_UNIT
]

BUILD SUCCESSFUL
IGNORE Total time: 3 seconds
Undeploying a service assembly
IGNORE   jmx connection info: (host=localhost, port=31387, username=admin)
  name=JMS_SAMPLE_WSDL_UNIT
Service assembly undeployment succeeded. [
JMS_SAMPLE_WSDL_UNIT
]

IGNORE BUILD SUCCESSFUL
IGNORE Total time: 6 seconds
Completed UnDeploying from jms binding
