testname is manage00332
IGNORE JBI_HOME is D:/nikita/dev/jsr208/esb/install/as8/jbi
IGNORE JBI_DOMAIN_ROOT is D:/nikita/dev/jsr208/esb/install/as8/domains/domain1
IGNORE jbi_instance_name is domain1@Mystique01.0
IGNORE jmx.provider is service:jmx:rmi:///jndi/rmi://Mystique01:8686/management/rmi-jmx-connector

BUILD SUCCESSFUL
IGNORE Total time: 2 seconds
IGNORE JBI_HOME is D:/nikita/dev/jsr208/esb/install/as8/jbi
IGNORE JBI_DOMAIN_ROOT is D:/nikita/dev/jsr208/esb/install/as8/domains/domain1
IGNORE jbi_instance_name is domain1@Mystique01.0
IGNORE jmx.provider is service:jmx:rmi:///jndi/rmi://Mystique01:8686/management/rmi-jmx-connector
IGNORE ##### Result for getSystemService(InstallationService)='com.sun.jbi:JbiName=domain1@Mystique01.0,ServiceName=InstallationService,ControlType=InstallationService,ComponentType=System'
IGNORE ##### Result for loadNewInstaller(jar:http://MYSTIQUE01:8084/mathlib1.jar!/) ='com.sun.jbi:JbiName=domain1@Mystique01.0,ComponentName=mathlib1,ControlType=Installer,ComponentType=Installed,InstalledType=Engine'
IGNORE ##### Result for install()='com.sun.jbi:JbiName=domain1@Mystique01.0,ComponentName=mathlib1,ControlType=Lifecycle,ComponentType=Installed,InstalledType=Engine'
##### Result for unloadInstaller(mathlib1,false)='true'
##### Result for start()=''
IGNORE ##### getExtensionMBeanName='com.sun.jbi:JbiName=domain1@Mystique01.0,ComponentName=mathlib1,ControlType=Controller,ComponentType=Installed,InstalledType=Engine'
##### getcomponentName='mathlib1'
##### getComponentInfo='ModelEngineComponent:  mathlib1'
##### getHelp='no soup for you'
IGNORE ##### getDefaultLoggerMBean='com.sun.jbi:JbiName=domain1@Mystique01.0,ComponentName=mathlib1,ControlType=Logger,ComponentType=Installed,InstalledType=Engine,LoggerName=com.acme.jbi.mathlib.engine.MathLibraryServiceController'
IGNORE ##### getLoggerMBeans='[com.sun.jbi:JbiName=domain1@Mystique01.0,ComponentName=mathlib1,ControlType=Logger,ComponentType=Installed,InstalledType=Engine,LoggerName=com.acme.jbi.mathlib.engine.MathLibraryServiceController]'
IGNORE ##### Result for getLoggerMBeanByName(com.acme.jbi.mathlib.engine.MathLibraryServiceController)='com.sun.jbi:JbiName=domain1@Mystique01.0,ComponentName=mathlib1,ControlType=Logger,ComponentType=Installed,InstalledType=Engine,LoggerName=com.acme.jbi.mathlib.engine.MathLibraryServiceController'
IGNORE ##### getLifeCycleMBean='com.sun.jbi:JbiName=domain1@Mystique01.0,ComponentName=mathlib1,ControlType=Lifecycle,ComponentType=Installed,InstalledType=Engine'
IGNORE ##### getDeployerMBean='com.sun.jbi:JbiName=domain1@Mystique01.0,ComponentName=mathlib1,ControlType=Deployer,ComponentType=Installed,InstalledType=Engine'
IGNORE ##### Result for getComponentMBeans(mathlib1)='[com.sun.jbi:JbiName=domain1@Mystique01.0,ComponentName=mathlib1,ControlType=Lifecycle,ComponentType=Installed,InstalledType=Engine	com.sun.jbi:JbiName=domain1@Mystique01.0,ComponentName=mathlib1,ControlType=Deployer,ComponentType=Installed,InstalledType=Engine	com.sun.jbi:JbiName=domain1@Mystique01.0,ComponentName=mathlib1,ControlType=Logger,ComponentType=Installed,InstalledType=Engine,LoggerName=com.acme.jbi.mathlib.engine.MathLibraryServiceController	com.sun.jbi:JbiName=domain1@Mystique01.0,ComponentName=mathlib1,ControlType=Controller,ComponentType=Installed,InstalledType=Engine	com.sun.jbi:JbiName=domain1@Mystique01.0,ComponentName=mathlib1,ControlType=Configuration,ComponentType=Installed,InstalledType=Engine]'
IGNORE ##### Result for getComponentLoggerMBeanById(mathlib1)='com.sun.jbi:JbiName=domain1@Mystique01.0,ComponentName=mathlib1,ControlType=Logger,ComponentType=Installed,InstalledType=Engine,LoggerName=com.acme.jbi.mathlib.engine.MathLibraryServiceController'
IGNORE ##### Result for getComponentConfigMBeanById(mathlib1)='com.sun.jbi:JbiName=domain1@Mystique01.0,ComponentName=mathlib1,ControlType=Configuration,ComponentType=Installed,InstalledType=Engine'
IGNORE ##### Result for setProperty(NOTIFICATION_LOGFILE,D:/nikita/dev/jsr208/esb/manage/bld/tmp/mathlib1_config_notifications.log)='0'
IGNORE ##### Result for getProperty(NOTIFICATION_LOGFILE)='D:/nikita/dev/jsr208/esb/manage/bld/tmp/mathlib1_config_notifications.log'
##### Result for apply()='0'
##### Result for save()='0'
IGNORE ##### Result for getDeployerMBeanNames(mathlib1,)='[com.sun.jbi:JbiName=domain1@Mystique01.0,ComponentName=mathlib1,ControlType=Deployer,ComponentType=Installed,InstalledType=Engine]'
##### Result for stop()=''
IGNORE ##### Result for loadInstaller(mathlib1)='com.sun.jbi:JbiName=domain1@Mystique01.0,ComponentName=mathlib1,ControlType=Installer,ComponentType=Installed,InstalledType=Engine'
##### Result for uninstall()=''
##### Result for unloadInstaller(mathlib1,true)='true'

BUILD SUCCESSFUL
IGNORE Total time: 5 seconds
IGNORE JBI_HOME is D:/nikita/dev/jsr208/esb/install/as8/jbi
IGNORE JBI_DOMAIN_ROOT is D:/nikita/dev/jsr208/esb/install/as8/domains/domain1
IGNORE jbi_instance_name is domain1@Mystique01.0
IGNORE jmx.provider is service:jmx:rmi:///jndi/rmi://Mystique01:8686/management/rmi-jmx-connector

BUILD SUCCESSFUL
IGNORE Total time: 3 seconds
