now calling ant to reinstall the calculator
IGNORE JBI_HOME is C:\cygwin\home\kcbabo\gfmerge\build\open-esb\install\as8/jbi
IGNORE JBI_DOMAIN_ROOT is C:/cygwin/home/kcbabo/gfmerge/build/open-esb/install/as8/domains/domain1
IGNORE jbi_instance_name is domain1
IGNORE jbi_target_name is server
IGNORE jmx.provider is service:jmx:rmi:///jndi/rmi://nullset:18686/management/rmi-jmx-connector
IGNORE calcinstaller is file:/C:\cygwin\home\kcbabo\gfmerge\build\open-esb\install\as8/jbi/components/jbicalc/installers/calc.jar
before install, calling isEngine and isBinding.
isEngine = 'false', isBinding ='false'.
about to invoke loadNewInstaller.
resulting bean is 'com.sun.jbi:Target=server,ServiceType=Installer,ComponentName=JbiCalculator'
now calling getInstallerConfigurationMBean() on that bean.
IGNORE resulting bean is 'com.sun.jbi:JbiName=domain1,CustomControlName=InstallerExtensionMBean,ComponentName=JbiCalculator,ControlType=Custom,ComponentType=Installed,InstalledType=Engine'
now setting/getting config variables.
Proxy: 'webcache.sfbay.sun.com' on port '8080'.

BUILD SUCCESSFUL
IGNORE Total time: 5 seconds
IGNORE JBI_HOME is C:\cygwin\home\kcbabo\gfmerge\build\open-esb\install\as8/jbi
IGNORE JBI_DOMAIN_ROOT is C:/cygwin/home/kcbabo/gfmerge/build/open-esb/install/as8/domains/domain1
IGNORE jbi_instance_name is domain1
IGNORE jbi_target_name is server
IGNORE jmx.provider is service:jmx:rmi:///jndi/rmi://nullset:18686/management/rmi-jmx-connector
resultingbean is com.sun.jbi:Target=server,ServiceType=Installer,ComponentName=JbiCalculator
now invoking install() on the component.
installerresults is 'com.sun.jbi:Target=server,ServiceType=ComponentLifeCycle,ComponentName=JbiCalculator'
now unloading the component installer.
results: true
now lookup the lifecycle MBean
lifeCycle mbean is 'com.sun.jbi:Target=server,ServiceType=ComponentLifeCycle,ComponentName=JbiCalculator'
after install, calling isEngine and isBinding.
isEngine = 'true', isBinding ='false'.
now start the component
start result is ''
now stop the component
stop result is ''
now shut down the component
shut down result is ''

BUILD SUCCESSFUL
IGNORE Total time: 3 seconds
IGNORE JBI_HOME is C:\cygwin\home\kcbabo\gfmerge\build\open-esb\install\as8/jbi
IGNORE JBI_DOMAIN_ROOT is C:/cygwin/home/kcbabo/gfmerge/build/open-esb/install/as8/domains/domain1
IGNORE jbi_instance_name is domain1
IGNORE jbi_target_name is server
IGNORE jmx.provider is service:jmx:rmi:///jndi/rmi://nullset:18686/management/rmi-jmx-connector
resultingbean is com.sun.jbi:Target=server,ServiceType=Installer,ComponentName=JbiCalculator
getting ready to uninstall the component.
loadInstaller() -> com.sun.jbi:Target=server,ServiceType=Installer,ComponentName=JbiCalculator.
now setting/getting config variables.
Proxy: 'testcache.sfbay.sun.com' on port '80'.
now invoking uninstall() on that bean.
uninstallresults is ''
lastly, cleaning up...
results: true

BUILD SUCCESSFUL
IGNORE Total time: 4 seconds
has been installed
2
has been uninstalled
2
exceptions
IGNORE 1
