testname is manage00603
IGNORE JBI_HOME is C:\cygwin\home\Annies\open-esb\build\open-esb\install\as8/jbi
IGNORE JBI_DOMAIN_ROOT is C:/cygwin/home/Annies/open-esb/build/open-esb/install/as8/domains/domain1
jbi_instance_name is server
jbi_target_name is server
IGNORE jmx.provider is service:jmx:rmi:///jndi/rmi://annies.red.iplanet.com:8686/management/rmi-jmx-connector

BUILD SUCCESSFUL
IGNORE Total time: 1 second
Installed component SunSequencingEngine.
  ERROR:(JBIMA0000)Schema validation failed for su1.jar : jbi.xml.  cvc-complex-type.2.4.a: Invalid content was found starting with element 'provides'. One of '{"http://java.sun.com/xml/ns/jbi":consumes, WC[##other:"http://java.sun.com/xml/ns/jbi"], WC[""]}' is expected.
    Caused by:(JBIMA0000)Schema validation failed for su1.jar : jbi.xml.  cvc-complex-type.2.4.a: Invalid content was found starting with element 'provides'. One of '{"http://java.sun.com/xml/ns/jbi":consumes, WC[##other:"http://java.sun.com/xml/ns/jbi"], WC[""]}' is expected.
CLI137 Command deploy-jbi-service-assembly failed.
Uninstalled component SunSequencingEngine.
