runtime-ui-00002 : Test Verifier.
prepare the artifacts
IGNORE JBI_HOME is C:/work/cygwin/home/annies/new/open-esb/install/jbise/jbi
IGNORE jmx.provider is service:jmx:rmi:///jndi/rmi://localhost:8699/jmxrmi

BUILD SUCCESSFUL
IGNORE Total time: 1 second
install the components
[i18n-echo] Installing a component
IGNORE [i18n-echo]   jmx connection info: (host=localhost, port=8699, secure=false, username=admin, target=server )
IGNORE [i18n-echo]   file=C:/work/cygwin/home/annies/new/open-esb/runtime/ui/bld/test-classes/dist/test-component.jar
[jbi-install-component] Install component succeeded. [
[jbi-install-component] test-component
[jbi-install-component] ]

BUILD SUCCESSFUL
IGNORE Total time: 2 seconds
[i18n-echo] Installing a component
IGNORE [i18n-echo]   jmx connection info: (host=localhost, port=8699, secure=false, username=admin, target=server )
IGNORE [i18n-echo]   file=C:/work/cygwin/home/annies/new/open-esb/runtime/ui/bld/test-classes/dist/test-component1.jar
[jbi-install-component] Install component succeeded. [
[jbi-install-component] test-component1
[jbi-install-component] ]

BUILD SUCCESSFUL
IGNORE Total time: 2 seconds
verify the SA
IGNORE JBI_HOME is C:/work/cygwin/home/annies/new/open-esb/install/jbise/jbi
IGNORE jmx.provider is service:jmx:rmi:///jndi/rmi://localhost:8699/jmxrmi
Service Assembly Information
-----------------------------
Name: SA1
Service Units: 2
Description: Test SA

Endpoint Configuration
-----------------------
Name: http://sun.com/transform-file.wsdl/,transformService,VagueEndpoint
Service Unit: SA1-SU1
Component: test-component
Status: UNRESOLVED
Endpoint Configuration
-----------------------
Name: http://sun.com/transform-file.wsdl/,transformService,AnotherEP2
Service Unit: SA1-SU2
Component: test-component1
Status: UNRESOLVED
Missing Application Configurations 
	MyAppConfig
Endpoint Configuration
-----------------------
Name: http://sun.com/transform-file.wsdl/,transformService,filetxEP2
Service Unit: SA1-SU2
Component: test-component1
Status: UNRESOLVED
Missing Application Variables 
	PROCESSED_LOCATION	NEW_LOCATION
Missing Application Configurations 
	MyAppConfig3
Endpoint Configuration
-----------------------
Name: http://sun.com/transform-file.wsdl/,transformService,filetxEP
Service Unit: SA1-SU1
Component: test-component
Status: UNRESOLVED
Missing Application Variables 
	INPUT_LOCATION	OUTPUT_LOCATION
Missing Application Configurations 
	MyAppConfig1
Endpoint Configuration
-----------------------
Name: http://sun.com/transform-file.wsdl/,transformService,AnotherEP
Service Unit: SA1-SU1
Component: test-component
Status: UNRESOLVED
Missing Application Variables 
	GREETINGS	INPUT_LOCATION	OUTPUT_LOCATION
Missing Application Configurations 
	MyAppConfig2

BUILD SUCCESSFUL
IGNORE Total time: 2 seconds
uninstall the components
[i18n-echo] Uninstalling a component
IGNORE [i18n-echo]   jmx connection info: (host=localhost, port=8699, secure=false, username=admin, target=server )
[i18n-echo]   name=test-component
[jbi-uninstall-component] Uninstall component succeeded. [
[jbi-uninstall-component] test-component
[jbi-uninstall-component] ]

BUILD SUCCESSFUL
IGNORE Total time: 1 second
[i18n-echo] Uninstalling a component
IGNORE [i18n-echo]   jmx connection info: (host=localhost, port=8699, secure=false, username=admin, target=server )
[i18n-echo]   name=test-component1
[jbi-uninstall-component] Uninstall component succeeded. [
[jbi-uninstall-component] test-component1
[jbi-uninstall-component] ]

BUILD SUCCESSFUL
IGNORE Total time: 1 second
IGNORE JBI framework has been unloaded.
IGNORE Unloading JBI framework in response to VM termination.
IGNORE JBI framework shutdown complete.
