runtime-ui-00101 : Test Stats on server.
Starting node-agent : agent1
IGNORE Redirecting output to C:/work/cygwin/gf/nodeagents/agent1/agent/logs/server.log
IGNORE Redirecting application output to C:/work/cygwin/gf/nodeagents/agent1/agent/logs/server.log
Command start-node-agent executed successfully.
Starting instance : instance1
Command start-instance executed successfully.
