runtime-ui-00151 : Test Framework, NMR, Component, Endpoint, SA Stats in testcluster.
Setup server for getting some stats
-----------------------------------
IGNORE JBI_HOME is /gf/jbi
IGNORE jmx.provider is service:jmx:rmi:///jndi/rmi://AABDULJAFFAR:8790/management/rmi-jmx-connector

BUILD SUCCESSFUL
IGNORE Total time: 1 second
Command set-jbi-runtime-configuration executed successfully.
Installed component sun-http-binding from the domain.
Deployed service assembly PingApp.
Started service assembly PingApp.
Installed component SimpleTestEngine.
Started component SimpleTestEngine.
Framework stats in testcluster
----------------------------
IGNORE JBI_HOME is /gf/jbi
IGNORE jmx.provider is service:jmx:rmi:///jndi/rmi://AABDULJAFFAR:8790/management/rmi-jmx-connector
	InstanceName=TestInstance2
IGNORE 	StartupTime (ms)=1359
IGNORE 	UpTime (ms)=16781

	InstanceName=TestInstance1
IGNORE 	StartupTime (ms)=1344
IGNORE 	UpTime (ms)=34500

BUILD SUCCESSFUL
IGNORE Total time: 1 second
NMR stats in testcluster
----------------------
IGNORE JBI_HOME is /gf/jbi
IGNORE jmx.provider is service:jmx:rmi:///jndi/rmi://AABDULJAFFAR:8790/management/rmi-jmx-connector
	InstanceName=TestInstance2
	ListActiveChannels:
		sun-http-binding
		SimpleTestEngine
	ListActiveEndpoints:
		http://www.sun.com/jbi/qos/redelivery,sun-http-binding,redeliveryLoopback
		http://ping,PingService,PingPort
		http://ping,PingService,ConsumingPingPort

	InstanceName=TestInstance1
	ListActiveChannels:
		sun-http-binding
		SimpleTestEngine
	ListActiveEndpoints:
		http://www.sun.com/jbi/qos/redelivery,sun-http-binding,redeliveryLoopback
		http://ping,PingService,PingPort
		http://ping,PingService,ConsumingPingPort

BUILD SUCCESSFUL
IGNORE Total time: 1 second
Component stats in testcluster
----------------------------
Started component sun-http-binding.
IGNORE JBI_HOME is /gf/jbi
IGNORE jmx.provider is service:jmx:rmi:///jndi/rmi://AABDULJAFFAR:8790/management/rmi-jmx-connector
		ConsumingEndpoints:
		PerformanceMeasurementCategories:
			Normalization
			Denormalization
		ProvisioningEndpoints:
			http://ping,PingService,PingPort,Provider
		ShortDisplayName=sun-http-binding
		TotalDone=0
		TotalErrors=0
		TotalReceivedDones=0
		TotalReceivedErrors=0
		TotalReceivedReplies=0
		TotalReceivedRequests=1
		TotalReplies=1
		TotalRequests=1
		TotalSentDones=0
		TotalSentErrors=0
		TotalSentReplies=1
		TotalSentRequests=0
IGNORE 	ComponentUpTime (ms)=14375
	InstanceName=TestInstance2
IGNORE 	MessageExchangeComponentTime Avg (ns)=41649148
IGNORE 	MessageExchangeDeliveryTime Avg (ns)=29054
IGNORE 	MessageExchangeNMRTime Avg (ns)=747302
IGNORE 	MessageExchangeResponseTime Avg (ns)=42474113
	MessageExchangeStatusTime Avg (ns)=0
	NumActivatedEndpoints=2
	NumActiveExchanges=0
IGNORE	NumActiveExchangesMax=0
	NumCompletedExchanges=1
	NumErrorExchanges=1
	NumQueuedExchanges=0
IGNORE	NumQueuedExchangesMax=0
	NumReceivedDONEs=0
	NumReceivedErrors=0
	NumReceivedFaults=0
	NumReceivedReplies=0
	NumReceivedRequests=1
	NumSentDONEs=0
	NumSentErrors=1
	NumSentFaults=0
	NumSentReplies=0
	NumSentRequests=0

		ConsumingEndpoints:
		PerformanceMeasurementCategories:
			Normalization
			Denormalization
		ProvisioningEndpoints:
			http://ping,PingService,PingPort,Provider
		ShortDisplayName=sun-http-binding
		TotalDone=0
		TotalErrors=0
		TotalReceivedDones=0
		TotalReceivedErrors=0
		TotalReceivedReplies=0
		TotalReceivedRequests=1
		TotalReplies=1
		TotalRequests=1
		TotalSentDones=0
		TotalSentErrors=0
		TotalSentReplies=1
		TotalSentRequests=0
IGNORE 	ComponentUpTime (ms)=13953
	InstanceName=TestInstance1
IGNORE 	MessageExchangeComponentTime Avg (ns)=50565365
IGNORE 	MessageExchangeDeliveryTime Avg (ns)=34920
IGNORE 	MessageExchangeNMRTime Avg (ns)=697017
IGNORE 	MessageExchangeResponseTime Avg (ns)=51344794
	MessageExchangeStatusTime Avg (ns)=0
	NumActivatedEndpoints=2
	NumActiveExchanges=0
IGNORE	NumActiveExchangesMax=0
	NumCompletedExchanges=1
	NumErrorExchanges=1
	NumQueuedExchanges=0
IGNORE	NumQueuedExchangesMax=0
	NumReceivedDONEs=0
	NumReceivedErrors=0
	NumReceivedFaults=0
	NumReceivedReplies=0
	NumReceivedRequests=1
	NumSentDONEs=0
	NumSentErrors=1
	NumSentFaults=0
	NumSentReplies=0
	NumSentRequests=0

BUILD SUCCESSFUL
IGNORE Total time: 1 second
List of providing endpoint for component
----------------------------------------
IGNORE JBI_HOME is /gf/jbi
IGNORE jmx.provider is service:jmx:rmi:///jndi/rmi://AABDULJAFFAR:8790/management/rmi-jmx-connector
	Endpoints:
		http://ping,PingService,ConsumingPingPort
	InstanceName=TestInstance2

	Endpoints:
		http://ping,PingService,ConsumingPingPort
	InstanceName=TestInstance1

BUILD SUCCESSFUL
IGNORE Total time: 1 second
List of consuming endpoints for component
-----------------------------------------
IGNORE JBI_HOME is /gf/jbi
IGNORE jmx.provider is service:jmx:rmi:///jndi/rmi://AABDULJAFFAR:8790/management/rmi-jmx-connector
	Endpoints:
		http://ping,PingService,PingPort
		http://www.sun.com/jbi/qos/redelivery,sun-http-binding,redeliveryLoopback
	InstanceName=TestInstance2

	Endpoints:
		http://ping,PingService,PingPort
		http://www.sun.com/jbi/qos/redelivery,sun-http-binding,redeliveryLoopback
	InstanceName=TestInstance1

BUILD SUCCESSFUL
IGNORE Total time: 1 second
Providing endpoint stats in testcluster
-------------------------------------
IGNORE JBI_HOME is /gf/jbi
IGNORE jmx.provider is service:jmx:rmi:///jndi/rmi://AABDULJAFFAR:8790/management/rmi-jmx-connector
IGNORE 	ActivationTime=Sun Mar 09 10:12:36 PDT 2008
	ComponentName=sun-http-binding
IGNORE 	EndpointUpTime (ms)=21578
	InstanceName=TestInstance2
IGNORE        MessageExchangeComponentTime Avg (ns)=139740665
IGNORE        MessageExchangeDeliveryTime Avg (ns)=73473
IGNORE        MessageExchangeNMRTime Avg (ns)=2482159
IGNORE        MessageExchangeResponseTime Avg (ns)=142414189
	NumActiveExchanges=0
	NumReceivedDONEs=0
	NumReceivedErrors=0
	NumReceivedFaults=0
	NumReceivedRequests=1
	NumSentDONEs=0
	NumSentErrors=1
	NumSentFaults=0
	NumSentReplies=0

	act=0
IGNORE  average (ms)=17.370085
IGNORE 	average' (ms)=17.370085
IGNORE 	first (ms)=17.370085
IGNORE 	last-first (ms)=17.371481999999997
	load=NaN
IGNORE 	median (ms)=14.481546878700492
	n=1
	source=com.sun.jbi.httpsoapbc.OutboundMessageProcessor
	sub topic=Denormalization
IGNORE 	throughput (s-1)=57.565612421553915
	topic=http://ping,PingService,PingPort,Provider
IGNORE 	total time (ms)=17.370085

IGNORE 	ActivationTime=Sun Mar 09 10:12:37 PDT 2008
	ComponentName=sun-http-binding
IGNORE 	EndpointUpTime (ms)=21297
	InstanceName=TestInstance1
IGNORE        MessageExchangeComponentTime Avg (ns)=136097745
IGNORE        MessageExchangeDeliveryTime Avg (ns)=73752
IGNORE        MessageExchangeNMRTime Avg (ns)=2902323
IGNORE        MessageExchangeResponseTime Avg (ns)=139201490
	NumActiveExchanges=0
	NumReceivedDONEs=0
	NumReceivedErrors=0
	NumReceivedFaults=0
	NumReceivedRequests=1
	NumSentDONEs=0
	NumSentErrors=1
	NumSentFaults=0
	NumSentReplies=0

	act=0
IGNORE  average (ms)=16.906618
IGNORE 	average' (ms)=16.906618
IGNORE 	first (ms)=16.906618
IGNORE 	last-first (ms)=16.908015
	load=NaN
IGNORE 	median (ms)=14.481546878700492
	n=1
	source=com.sun.jbi.httpsoapbc.OutboundMessageProcessor
	sub topic=Denormalization
IGNORE 	throughput (s-1)=59.14354819297239
	topic=http://ping,PingService,PingPort,Provider
IGNORE 	total time (ms)=16.906618

BUILD SUCCESSFUL
IGNORE Total time: 2 seconds
Consuming endpoint stats in testcluster
-------------------------------------
IGNORE JBI_HOME is /gf/jbi
IGNORE jmx.provider is service:jmx:rmi:///jndi/rmi://AABDULJAFFAR:8790/management/rmi-jmx-connector
	ComponentName=SimpleTestEngine
	InstanceName=TestInstance2
IGNORE 	MessageExchangeComponentTime Avg (ns)=41649148
IGNORE 	MessageExchangeDeliveryTime Avg (ns)=29054
IGNORE 	MessageExchangeNMRTime Avg (ns)=747302
IGNORE  MessageExchangeStatusTime Avg (ns)=0
	NumActiveExchanges=0
	NumReceivedDONEs=0
	NumReceivedErrors=1
	NumReceivedFaults=0
	NumReceivedReplies=0
	NumSentDONEs=0
	NumSentErrors=0
	NumSentFaults=0
	NumSentRequests=1

	ComponentName=SimpleTestEngine
	InstanceName=TestInstance1
IGNORE 	MessageExchangeComponentTime Avg (ns)=50565365
IGNORE 	MessageExchangeDeliveryTime Avg (ns)=34920
IGNORE 	MessageExchangeNMRTime Avg (ns)=697017
IGNORE 	MessageExchangeStatusTime Avg (ns)=0
	NumActiveExchanges=0
	NumReceivedDONEs=0
	NumReceivedErrors=1
	NumReceivedFaults=0
	NumReceivedReplies=0
	NumSentDONEs=0
	NumSentErrors=0
	NumSentFaults=0
	NumSentRequests=1

BUILD SUCCESSFUL
Total time: 1 second
Service Assembly stats in testcluster
-----------------------------------
IGNORE JBI_HOME is /gf/jbi
IGNORE jmx.provider is service:jmx:rmi:///jndi/rmi://AABDULJAFFAR:8790/management/rmi-jmx-connector
	InstanceName=TestInstance2
IGNORE 	LastStartupTime=Sun Mar 09 10:12:36 PDT 2008
	ServiceAssemblyName=PingApp
	ServiceUnitStatistics:
		ServiceUnitName=PingApp-sun-http-binding
IGNORE 		ServiceUnitStartupTime Avg (ms)=734
IGNORE 	StartupTime Avg (ms)=781
IGNORE 	UpTime (ms)=27203

	InstanceName=TestInstance1
IGNORE 	LastStartupTime=Sun Mar 09 10:12:37 PDT 2008
	ServiceAssemblyName=PingApp
	ServiceUnitStatistics:
		ServiceUnitName=PingApp-sun-http-binding
IGNORE 		ServiceUnitStartupTime Avg (ms)=766
IGNORE 	StartupTime Avg (ms)=797
IGNORE  UpTime (ms)=26406

BUILD SUCCESSFUL
IGNORE Total time: 1 second
Shut Down service assembly PingApp.
Undeployed service assembly PingApp.
Shut Down component SimpleTestEngine.
Uninstalled component SimpleTestEngine.
